userName,productName,reviewRating
pbhide,Galaxy S8 Plus,4
rjain,Alta HR Fitness,5
rjain,Inspiron 15 7000 Gaming,3
pawan,V20,4
gmathew,Smart Display,1
jdarwin,Link 20,4
pawan,Iphone 10,5
pawan,Galaxy J7,4
pawan,Pixel Xl,4
rjain,Pixel Xl,4
